{
  "metadata": [
    {
      "src": [
        {
          "files": [
            "NefTest.Common/NefTest.Common.csproj",
            "NefTest.Engine/NefTest.Engine.csproj",
            "NefTest.ConsoleRunner/NefTest.ConsoleRunner.csproj",
            "NefTest.PluginRunner/NefTest.PluginRunner.csproj",
            "NefTest.PluginRunnerLoader/NefTest.PluginRunnerLoader.csproj",
            "NefTest.VisualStudio.TestAdapter/NefTest.VisualStudio.TestAdapter.csproj",
          ],
          "src": "../"
        }
      ],
      "dest": "api",
      "disableGitFeatures": false,
      "disableDefaultFilter": false,
      "_gitContribute": {
        "repo": "https://gitlab.com/neftest/neftest.gitlab.io"
      },
      "_gitUrlPattern": "github"
    }
  ],
  "build": {
    "content": [
      {
        "files": [
          "api/**.yml",
          "api/index.md"
        ]
      },
      {
        "files": [
          "articles/**.md",
          "articles/**/toc.yml",
          "toc.yml",
          "*.md"
        ]
      }
    ],
    "resource": [
      {
        "files": [
          "images/**"
        ]
      }
    ],
    "overwrite": [
      {
        "files": [
          "apidoc/**.md"
        ],
        "exclude": [
          "obj/**",
          "public/**"
        ]
      }
    ],
    "dest": "../public",
    "globalMetadataFiles": [],
    "fileMetadataFiles": [],
    "template": [
      "default",
      "templates/neftest"
    ],
    "postProcessors": [],
    "markdownEngineName": "markdig",
    "noLangKeyword": false,
    "keepFileLink": false,
    "cleanupCacheHistory": false,
    "disableGitFeatures": false
  }
}